\relax 
\providecommand\hyper@newdestlabel[2]{}
\providecommand\HyperFirstAtBeginDocument{\AtBeginDocument}
\HyperFirstAtBeginDocument{\ifx\hyper@anchor\@undefined
\global\let\oldcontentsline\contentsline
\gdef\contentsline#1#2#3#4{\oldcontentsline{#1}{#2}{#3}}
\global\let\oldnewlabel\newlabel
\gdef\newlabel#1#2{\newlabelxx{#1}#2}
\gdef\newlabelxx#1#2#3#4#5#6{\oldnewlabel{#1}{{#2}{#3}}}
\AtEndDocument{\ifx\hyper@anchor\@undefined
\let\contentsline\oldcontentsline
\let\newlabel\oldnewlabel
\fi}
\fi}
\global\let\hyper@last\relax 
\gdef\HyperFirstAtBeginDocument#1{#1}
\providecommand\HyField@AuxAddToFields[1]{}
\providecommand\HyField@AuxAddToCoFields[2]{}
\@writefile{toc}{\contentsline {section}{\numberline {1}Introduction}{2}{section.1}\protected@file@percent }
\@writefile{toc}{\contentsline {subsection}{\numberline {1.1}The Origin of the Brillouin Zone Concept}{2}{subsection.1.1}\protected@file@percent }
\@writefile{toc}{\contentsline {subsection}{\numberline {1.2}The Single Electron Model}{2}{subsection.1.2}\protected@file@percent }
\@writefile{toc}{\contentsline {section}{\numberline {2}The One-Dimentional Periodic Potential}{2}{section.2}\protected@file@percent }
\@writefile{toc}{\contentsline {subsection}{\numberline {2.1}Solutions of the Schroedinger Equation}{2}{subsection.2.1}\protected@file@percent }
\newlabel{SolSchroedinger}{{2.1}{2}{Solutions of the Schroedinger Equation}{subsection.2.1}{}}
\newlabel{eq:Schroedinger}{{1}{3}{Solutions of the Schroedinger Equation}{equation.2.1}{}}
\newlabel{eq:toSolve}{{3}{3}{Solutions of the Schroedinger Equation}{equation.2.3}{}}
\newlabel{eq:interim1}{{6}{3}{Solutions of the Schroedinger Equation}{equation.2.6}{}}
\newlabel{eq:interim2}{{7}{3}{Solutions of the Schroedinger Equation}{equation.2.7}{}}
\newlabel{eq:interim3}{{8}{3}{Solutions of the Schroedinger Equation}{equation.2.8}{}}
\newlabel{eq:det}{{2.1}{3}{Solutions of the Schroedinger Equation}{equation.2.8}{}}
\newlabel{eq:interm4}{{9}{4}{Solutions of the Schroedinger Equation}{equation.2.9}{}}
\newlabel{eq:interim3}{{10}{4}{Solutions of the Schroedinger Equation}{equation.2.10}{}}
\newlabel{eq:interim4}{{11}{4}{Solutions of the Schroedinger Equation}{equation.2.11}{}}
\newlabel{eq:solUnbounded}{{12}{5}{Solutions of the Schroedinger Equation}{equation.2.12}{}}
\newlabel{eq:solBounded}{{13}{5}{Solutions of the Schroedinger Equation}{equation.2.13}{}}
\newlabel{eq:Bloch}{{14}{5}{Solutions of the Schroedinger Equation}{equation.2.14}{}}
\@writefile{toc}{\contentsline {subsection}{\numberline {2.2}The Relation between the Eigenvalues and the Wave-Number}{5}{subsection.2.2}\protected@file@percent }
\newlabel{eq:solSymPot}{{15}{5}{The Relation between the Eigenvalues and the Wave-Number}{equation.2.15}{}}
\newlabel{eq:interim5}{{16}{6}{The Relation between the Eigenvalues and the Wave-Number}{equation.2.16}{}}
\newlabel{eq:symp1p2}{{17}{6}{The Relation between the Eigenvalues and the Wave-Number}{equation.2.17}{}}
\newlabel{eq:relationEpsK}{{19}{6}{The Relation between the Eigenvalues and the Wave-Number}{equation.2.19}{}}
\newlabel{eq:d2x2p12}{{20}{6}{The Relation between the Eigenvalues and the Wave-Number}{equation.2.20}{}}
\@writefile{toc}{\contentsline {subsection}{\numberline {2.3}General Properties of the Eigenvalues and the Wave Functions}{7}{subsection.2.3}\protected@file@percent }
\newlabel{eq:Adp1dxBp2}{{21}{7}{General Properties of the Eigenvalues and the Wave Functions}{equation.2.21}{}}
\newlabel{eq:Ap1Bdp2dx}{{22}{8}{General Properties of the Eigenvalues and the Wave Functions}{equation.2.22}{}}
\newlabel{eq:interim6}{{23}{8}{General Properties of the Eigenvalues and the Wave Functions}{equation.2.23}{}}
\newlabel{eq:depsdk}{{25}{9}{General Properties of the Eigenvalues and the Wave Functions}{equation.2.25}{}}
\citation{AshcroftMermin}
\citation{JonesMarch}
\bibstyle{plain}
\bibdata{BZ_HJones__notes}
\bibcite{AshcroftMermin}{1}
\bibcite{JonesMarch}{2}
\@writefile{toc}{\contentsline {section}{Appendices}{10}{section*.1}\protected@file@percent }
\@writefile{toc}{\contentsline {section}{\numberline {A}Periodic Boundary Conditions}{10}{appendix.A}\protected@file@percent }
\newlabel{appx:periodicBoundCond}{{A}{10}{Periodic Boundary Conditions}{appendix.A}{}}
\@writefile{toc}{\contentsline {section}{\numberline {B}Solutions to a Schroedinger Equation with even Potential}{10}{appendix.B}\protected@file@percent }
\newlabel{appx:solWithEvenPot}{{B}{10}{Solutions to a Schroedinger Equation with even Potential}{appendix.B}{}}
