\BOOKMARK [1][-]{section.1}{Preface}{}% 1
\BOOKMARK [2][-]{subsection.1.1}{To the Student}{section.1}% 2
\BOOKMARK [1][-]{section.2}{Introduction}{}% 3
\BOOKMARK [2][-]{subsection.2.1}{Automata, Computability, and Complexity}{section.2}% 4
\BOOKMARK [3][-]{subsubsection.2.1.1}{Complexity Theory}{subsection.2.1}% 5
\BOOKMARK [3][-]{subsubsection.2.1.2}{Computability Theory}{subsection.2.1}% 6
\BOOKMARK [3][-]{subsubsection.2.1.3}{Automata Theory}{subsection.2.1}% 7
\BOOKMARK [1][-]{section.3}{Regular Languages}{}% 8
\BOOKMARK [2][-]{subsection.3.1}{Finite Automata}{section.3}% 9
\BOOKMARK [3][-]{subsubsection.3.1.1}{Formal Definition of a Finite Automaton}{subsection.3.1}% 10
\BOOKMARK [3][-]{subsubsection.3.1.2}{Formal Definition of Computation}{subsection.3.1}% 11
\BOOKMARK [3][-]{subsubsection.3.1.3}{Designing Finite Automata}{subsection.3.1}% 12
\BOOKMARK [3][-]{subsubsection.3.1.4}{The Regular Operations}{subsection.3.1}% 13
\BOOKMARK [2][-]{subsection.3.2}{Nondeterminism}{section.3}% 14
\BOOKMARK [2][-]{subsection.3.3}{Formal Definition of NFA}{section.3}% 15
\BOOKMARK [3][-]{subsubsection.3.3.1}{Equivalence of NFAs and DFAs}{subsection.3.3}% 16
\BOOKMARK [2][-]{subsection.3.4}{Regular Expressions}{section.3}% 17
\BOOKMARK [2][-]{subsection.3.5}{Equivalence with Finite Automata}{section.3}% 18
\BOOKMARK [1][-]{section.4}{Context-Free Languages}{}% 19
\BOOKMARK [2][-]{subsection.4.1}{Ambiguity}{section.4}% 20
\BOOKMARK [2][-]{subsection.4.2}{Chomsky Normal Form}{section.4}% 21
\BOOKMARK [2][-]{subsection.4.3}{Pushdown Automata}{section.4}% 22
