\relax 
\providecommand\hyper@newdestlabel[2]{}
\providecommand\HyperFirstAtBeginDocument{\AtBeginDocument}
\HyperFirstAtBeginDocument{\ifx\hyper@anchor\@undefined
\global\let\oldcontentsline\contentsline
\gdef\contentsline#1#2#3#4{\oldcontentsline{#1}{#2}{#3}}
\global\let\oldnewlabel\newlabel
\gdef\newlabel#1#2{\newlabelxx{#1}#2}
\gdef\newlabelxx#1#2#3#4#5#6{\oldnewlabel{#1}{{#2}{#3}}}
\AtEndDocument{\ifx\hyper@anchor\@undefined
\let\contentsline\oldcontentsline
\let\newlabel\oldnewlabel
\fi}
\fi}
\global\let\hyper@last\relax 
\gdef\HyperFirstAtBeginDocument#1{#1}
\providecommand\HyField@AuxAddToFields[1]{}
\providecommand\HyField@AuxAddToCoFields[2]{}
\@writefile{toc}{\contentsline {section}{\numberline {1}Preface}{2}{section.1}\protected@file@percent }
\@writefile{toc}{\contentsline {subsection}{\numberline {1.1}To the Student}{2}{subsection.1.1}\protected@file@percent }
\@writefile{toc}{\contentsline {section}{\numberline {2}Introduction}{2}{section.2}\protected@file@percent }
\@writefile{toc}{\contentsline {subsection}{\numberline {2.1}Automata, Computability, and Complexity}{2}{subsection.2.1}\protected@file@percent }
\@writefile{toc}{\contentsline {subsubsection}{\numberline {2.1.1}Complexity Theory}{2}{subsubsection.2.1.1}\protected@file@percent }
\@writefile{toc}{\contentsline {subsubsection}{\numberline {2.1.2}Computability Theory}{3}{subsubsection.2.1.2}\protected@file@percent }
\@writefile{toc}{\contentsline {subsubsection}{\numberline {2.1.3}Automata Theory}{3}{subsubsection.2.1.3}\protected@file@percent }
\@writefile{toc}{\contentsline {section}{\numberline {3}Regular Languages}{3}{section.3}\protected@file@percent }
\newlabel{fig:autoDoorGraph}{{3.1}{4}{Finite Automata}{subsection.3.1}{}}
\@writefile{lof}{\contentsline {figure}{\numberline {1}{\ignorespaces State graph for an automatic door controller.}}{4}{figure.1}\protected@file@percent }
\@writefile{toc}{\contentsline {subsection}{\numberline {3.1}Finite Automata}{4}{subsection.3.1}\protected@file@percent }
\@writefile{toc}{\contentsline {subsubsection}{\numberline {3.1.1}Formal Definition of a Finite Automaton}{4}{subsubsection.3.1.1}\protected@file@percent }
\newlabel{def:finiteAutomaton}{{3.1}{4}{}{thm.3.1}{}}
\newlabel{def:language}{{3.2}{4}{}{thm.3.2}{}}
\@writefile{toc}{\contentsline {subsubsection}{\numberline {3.1.2}Formal Definition of Computation}{5}{subsubsection.3.1.2}\protected@file@percent }
\newlabel{def:regLang}{{3.4}{5}{}{thm.3.4}{}}
\@writefile{toc}{\contentsline {subsubsection}{\numberline {3.1.3}Designing Finite Automata}{5}{subsubsection.3.1.3}\protected@file@percent }
\citation{sipserIntroTheoComp}
\newlabel{fig:automatonOdd1s}{{3.1.3}{6}{Designing Finite Automata}{Item.10}{}}
\@writefile{lof}{\contentsline {figure}{\numberline {2}{\ignorespaces Automaton that recognized the language of odd 1s.}}{6}{figure.2}\protected@file@percent }
\@writefile{toc}{\contentsline {subsubsection}{\numberline {3.1.4}The Regular Operations}{6}{subsubsection.3.1.4}\protected@file@percent }
\newlabel{def:operLang}{{3.5}{6}{}{thm.3.5}{}}
\newlabel{thm:regLangClosed}{{3.7}{6}{}{thm.3.7}{}}
\@writefile{toc}{\contentsline {subsection}{\numberline {3.2}Nondeterminism}{6}{subsection.3.2}\protected@file@percent }
\@writefile{toc}{\contentsline {subsection}{\numberline {3.3}Formal Definition of NFA}{7}{subsection.3.3}\protected@file@percent }
\newlabel{def:NFA}{{3.8}{7}{}{thm.3.8}{}}
\@writefile{toc}{\contentsline {subsubsection}{\numberline {3.3.1}Equivalence of NFAs and DFAs}{7}{subsubsection.3.3.1}\protected@file@percent }
\@writefile{toc}{\contentsline {subsection}{\numberline {3.4}Regular Expressions}{8}{subsection.3.4}\protected@file@percent }
\@writefile{toc}{\contentsline {subsection}{\numberline {3.5}Equivalence with Finite Automata}{9}{subsection.3.5}\protected@file@percent }
\@writefile{toc}{\contentsline {section}{\numberline {4}Context-Free Languages}{13}{section.4}\protected@file@percent }
\@writefile{toc}{\contentsline {subsection}{\numberline {4.1}Ambiguity}{14}{subsection.4.1}\protected@file@percent }
\@writefile{toc}{\contentsline {subsection}{\numberline {4.2}Chomsky Normal Form}{15}{subsection.4.2}\protected@file@percent }
\bibstyle{plain}
\bibdata{TheoComp__notes}
\bibcite{sipserIntroTheoComp}{1}
\@writefile{toc}{\contentsline {subsection}{\numberline {4.3}Pushdown Automata}{17}{subsection.4.3}\protected@file@percent }
