# Fdb version 3
["bibtex QM_notes"] 1588794468 "QM_notes.aux" "QM_notes.bbl" "QM_notes" 1588794469
  "/usr/local/texlive/2019/texmf-dist/bibtex/bst/base/plain.bst" 1292289607 20613 bd3fbfa9f64872b81ac57a0dd2ed855f ""
  "QM_notes.aux" 1588794469 1178 aca78daaa5abe1015a78b1a0e6ab2ae8 "pdflatex"
  "notes.bib" 0 -1 0 ""
  (generated)
  "QM_notes.bbl"
  "QM_notes.blg"
["pdflatex"] 1588794468 "QM_notes.tex" "QM_notes.pdf" "QM_notes" 1588794469
  "/dev/null" 1588794468 0 d41d8cd98f00b204e9800998ecf8427e ""
  "/usr/local/texlive/2019/texmf-dist/fonts/enc/dvips/base/8r.enc" 1165713224 4850 80dc9bab7f31fb78a000ccfed0e27cab ""
  "/usr/local/texlive/2019/texmf-dist/fonts/map/fontname/texfonts.map" 1511824771 3332 103109f5612ad95229751940c61aada0 ""
  "/usr/local/texlive/2019/texmf-dist/fonts/tfm/public/cm/cmr10.tfm" 1136768653 1296 45809c5a464d5f32c8f98ba97c1bb47f ""
  "/usr/local/texlive/2019/texmf-dist/fonts/tfm/public/cm/cmr12.tfm" 1136768653 1288 655e228510b4c2a1abe905c368440826 ""
  "/usr/local/texlive/2019/texmf-dist/fonts/tfm/public/rsfs/rsfs10.tfm" 1229303445 688 37338d6ab346c2f1466b29e195316aa4 ""
  "/usr/local/texlive/2019/texmf-dist/fonts/tfm/public/rsfs/rsfs5.tfm" 1229303445 684 3a51bd4fd9600428d5264cf25f04bb9a ""
  "/usr/local/texlive/2019/texmf-dist/fonts/tfm/public/rsfs/rsfs7.tfm" 1229303445 692 1b6510779f0f05e9cbf03e0f6c8361e6 ""
  "/usr/local/texlive/2019/texmf-dist/fonts/tfm/public/txfonts/rtxb.tfm" 1136768653 1020 c53143d3e3747b5c1149bd9a5ecd7b55 ""
  "/usr/local/texlive/2019/texmf-dist/fonts/tfm/public/txfonts/rtxi.tfm" 1136768653 1048 a97cff5f6b833b712079817ce7a40d4c ""
  "/usr/local/texlive/2019/texmf-dist/fonts/tfm/public/txfonts/rtxmi.tfm" 1136768653 1056 e2202af076e43d03fc17f87e104021b0 ""
  "/usr/local/texlive/2019/texmf-dist/fonts/tfm/public/txfonts/rtxptmb.tfm" 1136768653 4572 2c370d27bbb031f7592de9d41dc8cfca ""
  "/usr/local/texlive/2019/texmf-dist/fonts/tfm/public/txfonts/rtxptmr.tfm" 1136768653 4452 0fd0a792eaab7113e4d4f1b941ff0367 ""
  "/usr/local/texlive/2019/texmf-dist/fonts/tfm/public/txfonts/rtxptmri.tfm" 1136768653 4640 ce59980bcbe9e6236fab46d0b5212c7e ""
  "/usr/local/texlive/2019/texmf-dist/fonts/tfm/public/txfonts/rtxr.tfm" 1136768653 1004 c0e991f864f31f017ea4ff9e451b76d4 ""
  "/usr/local/texlive/2019/texmf-dist/fonts/tfm/public/txfonts/txb.tfm" 1136768653 2452 76194099b4f1c022cb59f4564251c4fe ""
  "/usr/local/texlive/2019/texmf-dist/fonts/tfm/public/txfonts/txex.tfm" 1136768653 1080 b674b4ba143004461509a754a0984b67 ""
  "/usr/local/texlive/2019/texmf-dist/fonts/tfm/public/txfonts/txexa.tfm" 1136768653 688 f56006d6e56f46e63d9f63252958b828 ""
  "/usr/local/texlive/2019/texmf-dist/fonts/tfm/public/txfonts/txi.tfm" 1136768653 2584 cf4a6a7c2a518d47468fe29ef0913ba0 ""
  "/usr/local/texlive/2019/texmf-dist/fonts/tfm/public/txfonts/txmi.tfm" 1232065820 1944 f854e259cb2839e49d4aa2949544a6e1 ""
  "/usr/local/texlive/2019/texmf-dist/fonts/tfm/public/txfonts/txmia.tfm" 1136768653 1180 72784d0ee5a983fba99a0986b31b0493 ""
  "/usr/local/texlive/2019/texmf-dist/fonts/tfm/public/txfonts/txr.tfm" 1136768653 2408 aec793a3c45e495f7ad15b227c91f508 ""
  "/usr/local/texlive/2019/texmf-dist/fonts/tfm/public/txfonts/txsy.tfm" 1136768653 1268 1d124f224979493f8fd017a7597ea1cd ""
  "/usr/local/texlive/2019/texmf-dist/fonts/tfm/public/txfonts/txsya.tfm" 1136768653 972 2c9ffac4bbd20f91c01aaef9bf3f8710 ""
  "/usr/local/texlive/2019/texmf-dist/fonts/tfm/public/txfonts/txsyb.tfm" 1136768653 988 098ca7e8cc5647b9ac21b82dbdce1f01 ""
  "/usr/local/texlive/2019/texmf-dist/fonts/tfm/public/txfonts/txsyc.tfm" 1136768653 1084 75e807e9e71f7a312e4e1187dce5e93b ""
  "/usr/local/texlive/2019/texmf-dist/fonts/tfm/public/wasy/wasy10.tfm" 1418683037 884 cb2a5aeb15d2c2fa75963576ff22778d ""
  "/usr/local/texlive/2019/texmf-dist/fonts/tfm/public/wasy/wasy6.tfm" 1418683037 892 ce84734a3ce970a47ce7803be6d89b0f ""
  "/usr/local/texlive/2019/texmf-dist/fonts/tfm/public/wasy/wasy7.tfm" 1418683037 888 5f102ebf31506247d60c56d7d473e774 ""
  "/usr/local/texlive/2019/texmf-dist/fonts/tfm/public/wasy/wasy8.tfm" 1418683037 884 df491db60492d6d4b55157a114e1a6bd ""
  "/usr/local/texlive/2019/texmf-dist/fonts/type1/public/txfonts/rtxmi.pfb" 1232065820 13806 49b888f4605a088e66b9eb4fee320a6e ""
  "/usr/local/texlive/2019/texmf-dist/fonts/type1/public/txfonts/rtxr.pfb" 1136849748 6339 e2b78706efdc360ee6aec9b6e20211a7 ""
  "/usr/local/texlive/2019/texmf-dist/fonts/type1/public/txfonts/txex.pfb" 1136849748 17531 c91f2d6943f51d7c46d6b7b9cedd50ba ""
  "/usr/local/texlive/2019/texmf-dist/fonts/type1/public/txfonts/txsy.pfb" 1136849748 20336 69267d8a81bca8b24c9b42694a4a28f9 ""
  "/usr/local/texlive/2019/texmf-dist/fonts/type1/public/txfonts/txsyb.pfb" 1136849748 24244 ffc0312cbd155e940e16287bb7cbb16c ""
  "/usr/local/texlive/2019/texmf-dist/fonts/type1/urw/times/utmb8a.pfb" 1136849748 44729 811d6c62865936705a31c797a1d5dada ""
  "/usr/local/texlive/2019/texmf-dist/fonts/type1/urw/times/utmr8a.pfb" 1136849748 46026 6dab18b61c907687b520c72847215a68 ""
  "/usr/local/texlive/2019/texmf-dist/fonts/type1/urw/times/utmri8a.pfb" 1136849748 45458 a3faba884469519614ca56ba5f6b1de1 ""
  "/usr/local/texlive/2019/texmf-dist/fonts/vf/public/txfonts/txb.vf" 1136768653 904 6f62e1cf12eaf73424d693287a9d3dce ""
  "/usr/local/texlive/2019/texmf-dist/fonts/vf/public/txfonts/txi.vf" 1136768653 904 4ff20c038f0c15338aa91e1bb66c7989 ""
  "/usr/local/texlive/2019/texmf-dist/fonts/vf/public/txfonts/txmi.vf" 1232065820 960 cfcc9d587b40b769f64408b3ca115941 ""
  "/usr/local/texlive/2019/texmf-dist/fonts/vf/public/txfonts/txr.vf" 1136768653 904 e582cae2d8ae3f48a0a520440ebcdb51 ""
  "/usr/local/texlive/2019/texmf-dist/tex/context/base/mkii/supp-pdf.mkii" 1461363279 71627 94eb9990bed73c364d7f53f960cc8c5b ""
  "/usr/local/texlive/2019/texmf-dist/tex/generic/ifxetex/ifxetex.sty" 1284331290 1458 43ab4710dc82f3edeabecd0d099626b2 ""
  "/usr/local/texlive/2019/texmf-dist/tex/generic/oberdiek/gettitlestring.sty" 1463608860 8237 3b62ef1f7e2c23a328c814b3893bc11f ""
  "/usr/local/texlive/2019/texmf-dist/tex/generic/oberdiek/hobsub-generic.sty" 1536701967 185392 b99a6d53180e04300c35e18725f31231 ""
  "/usr/local/texlive/2019/texmf-dist/tex/generic/oberdiek/hobsub-hyperref.sty" 1465595255 70864 bcd5b216757bd619ae692a151d90085d ""
  "/usr/local/texlive/2019/texmf-dist/tex/generic/pgf/basiclayer/pgfcore.code.tex" 1546728038 969 03f6c464fd951d8725b3a4959f4c6de0 ""
  "/usr/local/texlive/2019/texmf-dist/tex/generic/pgf/basiclayer/pgfcorearrows.code.tex" 1546728038 43820 bc6cf5aa959817914ace33f5c6232161 ""
  "/usr/local/texlive/2019/texmf-dist/tex/generic/pgf/basiclayer/pgfcoreexternal.code.tex" 1557092330 19324 c9a64402f22bd8d81821141a357af653 ""
  "/usr/local/texlive/2019/texmf-dist/tex/generic/pgf/basiclayer/pgfcoregraphicstate.code.tex" 1546728038 6038 d639d02574be9a72f3c602c2a3510e02 ""
  "/usr/local/texlive/2019/texmf-dist/tex/generic/pgf/basiclayer/pgfcoreimage.code.tex" 1546728038 6948 284bbe3c9a7ca0a826c1c03895e69b9f ""
  "/usr/local/texlive/2019/texmf-dist/tex/generic/pgf/basiclayer/pgfcorelayers.code.tex" 1546728038 4883 a6f3eb1f71d8c4affaf43a169828b043 ""
  "/usr/local/texlive/2019/texmf-dist/tex/generic/pgf/basiclayer/pgfcoreobjects.code.tex" 1546728038 2544 3b1b198fd49f01e328adc9162a07b213 ""
  "/usr/local/texlive/2019/texmf-dist/tex/generic/pgf/basiclayer/pgfcorepathconstruct.code.tex" 1546728038 44195 134d5eb267e64d2a6b6dc75008e7c5fd ""
  "/usr/local/texlive/2019/texmf-dist/tex/generic/pgf/basiclayer/pgfcorepathprocessing.code.tex" 1546728038 17311 3092579be20ef0f229c42ad3f09da85c ""
  "/usr/local/texlive/2019/texmf-dist/tex/generic/pgf/basiclayer/pgfcorepathusage.code.tex" 1546728038 21302 d6c4b340248adbe650ebf6ca76bdccca ""
  "/usr/local/texlive/2019/texmf-dist/tex/generic/pgf/basiclayer/pgfcorepatterns.code.tex" 1546728038 9541 9d1ee06aeaf948a30f150e450eb2d944 ""
  "/usr/local/texlive/2019/texmf-dist/tex/generic/pgf/basiclayer/pgfcorepoints.code.tex" 1557092330 33356 19ca73d4aa24857120b230a5d06f6b4c ""
  "/usr/local/texlive/2019/texmf-dist/tex/generic/pgf/basiclayer/pgfcorequick.code.tex" 1546728038 2965 502761b60f43ab2de5ecb2f4625163ae ""
  "/usr/local/texlive/2019/texmf-dist/tex/generic/pgf/basiclayer/pgfcorerdf.code.tex" 1546728038 5196 f8c5c775d4d6e2cb050392127cabda72 ""
  "/usr/local/texlive/2019/texmf-dist/tex/generic/pgf/basiclayer/pgfcorescopes.code.tex" 1557092330 20817 1763e1bd1795e073004fa1b1d2d3a6ff ""
  "/usr/local/texlive/2019/texmf-dist/tex/generic/pgf/basiclayer/pgfcoreshade.code.tex" 1557092330 23633 7f8db199ac2ca8f3c6b168005e7899a6 ""
  "/usr/local/texlive/2019/texmf-dist/tex/generic/pgf/basiclayer/pgfcoretransformations.code.tex" 1546728038 21989 266e83c51fe41eb8b8d5e6896dc71cc1 ""
  "/usr/local/texlive/2019/texmf-dist/tex/generic/pgf/basiclayer/pgfcoretransparency.code.tex" 1546728038 8842 5cc856e132fac404805c6da091779283 ""
  "/usr/local/texlive/2019/texmf-dist/tex/generic/pgf/frontendlayer/tikz/libraries/tikzlibraryarrows.code.tex" 1546728038 319 8fc6edce901e074ba09de320a8fc686b ""
  "/usr/local/texlive/2019/texmf-dist/tex/generic/pgf/frontendlayer/tikz/libraries/tikzlibraryautomata.code.tex" 1546728038 3986 c962be8d57437fcaf853d2babd8ed403 ""
  "/usr/local/texlive/2019/texmf-dist/tex/generic/pgf/frontendlayer/tikz/libraries/tikzlibrarypositioning.code.tex" 1546728038 3937 20cd45386ca23052ce976464f0ada984 ""
  "/usr/local/texlive/2019/texmf-dist/tex/generic/pgf/frontendlayer/tikz/libraries/tikzlibraryshapes.multipart.code.tex" 1546728038 919 da625675781832f2b61a7048a51ef656 ""
  "/usr/local/texlive/2019/texmf-dist/tex/generic/pgf/frontendlayer/tikz/libraries/tikzlibrarytopaths.code.tex" 1546728038 11605 3cfbfe82478675de992de878ae30cba4 ""
  "/usr/local/texlive/2019/texmf-dist/tex/generic/pgf/frontendlayer/tikz/tikz.code.tex" 1557092330 184062 a6b2d8312f7efd5877ebedbd98dd55c1 ""
  "/usr/local/texlive/2019/texmf-dist/tex/generic/pgf/libraries/pgflibraryarrows.code.tex" 1546728038 31874 d843d507175f2bdfa3abf01f0349dac8 ""
  "/usr/local/texlive/2019/texmf-dist/tex/generic/pgf/libraries/pgflibraryplothandlers.code.tex" 1546728038 32995 a4d54c043ae5274ceaaddeb36ad43a6f ""
  "/usr/local/texlive/2019/texmf-dist/tex/generic/pgf/libraries/shapes/pgflibraryshapes.multipart.code.tex" 1546728038 62281 fd68e6d2c2dc178611c8f4d2d86e79ae ""
  "/usr/local/texlive/2019/texmf-dist/tex/generic/pgf/math/pgfmath.code.tex" 1557092330 521 c70cf6ad609de83a27ee7929eb356332 ""
  "/usr/local/texlive/2019/texmf-dist/tex/generic/pgf/math/pgfmathcalc.code.tex" 1557092330 13391 933cab19c6d27039dbfc487330d1005a ""
  "/usr/local/texlive/2019/texmf-dist/tex/generic/pgf/math/pgfmathfloat.code.tex" 1557092330 104938 15f2d8bdabd6bf9ca70f62cd8e3d4940 ""
  "/usr/local/texlive/2019/texmf-dist/tex/generic/pgf/math/pgfmathfunctions.base.code.tex" 1557092330 10157 218d58ab074e5bd0d027de45ec64cc00 ""
  "/usr/local/texlive/2019/texmf-dist/tex/generic/pgf/math/pgfmathfunctions.basic.code.tex" 1557092330 28177 7c47c337a1d5dbef1983ad718b752780 ""
  "/usr/local/texlive/2019/texmf-dist/tex/generic/pgf/math/pgfmathfunctions.code.tex" 1557092330 9191 47b66ae56123e441ad9b781149e62b61 ""
  "/usr/local/texlive/2019/texmf-dist/tex/generic/pgf/math/pgfmathfunctions.comparison.code.tex" 1557092330 3865 cddf7ddc80f018587c55afdcc79fc333 ""
  "/usr/local/texlive/2019/texmf-dist/tex/generic/pgf/math/pgfmathfunctions.integerarithmetics.code.tex" 1557092330 3177 27d85c44fbfe09ff3b2cf2879e3ea434 ""
  "/usr/local/texlive/2019/texmf-dist/tex/generic/pgf/math/pgfmathfunctions.misc.code.tex" 1557092330 10925 df50b8a6e5660a585e3a2bf55726dcc8 ""
  "/usr/local/texlive/2019/texmf-dist/tex/generic/pgf/math/pgfmathfunctions.random.code.tex" 1557092330 7757 7705f3e11ccd6e3eb3ad082230465f1a ""
  "/usr/local/texlive/2019/texmf-dist/tex/generic/pgf/math/pgfmathfunctions.round.code.tex" 1557092330 3379 cbd0948a550bd7a495a160ca6beee9ed ""
  "/usr/local/texlive/2019/texmf-dist/tex/generic/pgf/math/pgfmathfunctions.trigonometric.code.tex" 1557092330 92405 bba89470858d7b0788a9c09331c39653 ""
  "/usr/local/texlive/2019/texmf-dist/tex/generic/pgf/math/pgfmathparser.code.tex" 1557092330 36369 b9fc998228b00ac0e98c7a5cc552e6f2 ""
  "/usr/local/texlive/2019/texmf-dist/tex/generic/pgf/math/pgfmathutil.code.tex" 1557092330 7431 af3d75e118d051d25f998b340bda2432 ""
  "/usr/local/texlive/2019/texmf-dist/tex/generic/pgf/modules/pgfmodulematrix.code.tex" 1557092330 20905 32f5da2d6cf180962acc32cfde9fb2bc ""
  "/usr/local/texlive/2019/texmf-dist/tex/generic/pgf/modules/pgfmoduleplot.code.tex" 1557092330 16121 9e240115374a8d489f2f786115df83a9 ""
  "/usr/local/texlive/2019/texmf-dist/tex/generic/pgf/modules/pgfmoduleshapes.code.tex" 1557092330 43313 34802317aa5ec625495eb059ee22dac1 ""
  "/usr/local/texlive/2019/texmf-dist/tex/generic/pgf/pgf.revision.tex" 1557092330 463 c46c7c3cfa252697c376a7f3b9edf4e1 ""
  "/usr/local/texlive/2019/texmf-dist/tex/generic/pgf/systemlayer/pgf.cfg" 1557092330 926 70ff613fabeb70f5d1673dc0c93987bd ""
  "/usr/local/texlive/2019/texmf-dist/tex/generic/pgf/systemlayer/pgfsys-common-pdf.def" 1557092330 5546 3586827e6032c95512b2a6682d2979a3 ""
  "/usr/local/texlive/2019/texmf-dist/tex/generic/pgf/systemlayer/pgfsys-pdftex.def" 1557092330 13604 c814ee30f2c783aac5aa5f1fa9bd5d8f ""
  "/usr/local/texlive/2019/texmf-dist/tex/generic/pgf/systemlayer/pgfsys.code.tex" 1557092330 60235 95c0c3ec344c91e1862f00113848c7fd ""
  "/usr/local/texlive/2019/texmf-dist/tex/generic/pgf/systemlayer/pgfsysprotocol.code.tex" 1557092330 1896 82c274ff520f9e450ccea4e3ef4edc12 ""
  "/usr/local/texlive/2019/texmf-dist/tex/generic/pgf/systemlayer/pgfsyssoftpath.code.tex" 1557092330 7778 a25a32a10ca820357491d4c7b3ac02ea ""
  "/usr/local/texlive/2019/texmf-dist/tex/generic/pgf/utilities/pgffor.code.tex" 1557092330 23747 e2b4752cd808d28181c87a5a827014a7 ""
  "/usr/local/texlive/2019/texmf-dist/tex/generic/pgf/utilities/pgfkeys.code.tex" 1557092330 36444 cdc8278aa457606d7592c10e8ba76822 ""
  "/usr/local/texlive/2019/texmf-dist/tex/generic/pgf/utilities/pgfkeysfiltered.code.tex" 1557092330 37552 0e8604fe25a87d19012c76fcfb85271c ""
  "/usr/local/texlive/2019/texmf-dist/tex/generic/pgf/utilities/pgfrcs.code.tex" 1557092330 4197 7d1ede1330228937d4e18809b2ca0e1f ""
  "/usr/local/texlive/2019/texmf-dist/tex/generic/pgf/utilities/pgfutil-common-lists.tex" 1557092330 7250 03b2b9fb5fa38e7ca5cc3c45860fb210 ""
  "/usr/local/texlive/2019/texmf-dist/tex/generic/pgf/utilities/pgfutil-common.tex" 1557092330 26759 caa1a6483e91bb5d06dda1802f7a6f32 ""
  "/usr/local/texlive/2019/texmf-dist/tex/generic/pgf/utilities/pgfutil-latex.def" 1557092330 6162 fdfa536d094720cfb975ddffdc71c331 ""
  "/usr/local/texlive/2019/texmf-dist/tex/generic/unicode-data/UnicodeData.txt" 1552169639 1797715 6221effa1dd15524745a467f7366233d ""
  "/usr/local/texlive/2019/texmf-dist/tex/latex/amscls/amsthm.sty" 1513722769 12604 3dec726c041422879dc3268237f09026 ""
  "/usr/local/texlive/2019/texmf-dist/tex/latex/amsfonts/amsfonts.sty" 1359763108 5949 3f3fd50a8cc94c3d4cbf4fc66cd3df1c ""
  "/usr/local/texlive/2019/texmf-dist/tex/latex/amsfonts/amssymb.sty" 1359763108 13829 94730e64147574077f8ecfea9bb69af4 ""
  "/usr/local/texlive/2019/texmf-dist/tex/latex/amsmath/amsbsy.sty" 1523134290 2211 ca7ce284ab93c8eecdc6029dc5ccbd73 ""
  "/usr/local/texlive/2019/texmf-dist/tex/latex/amsmath/amsgen.sty" 1523134290 4161 7f6eb9092061a11f87d08ed13515b48d ""
  "/usr/local/texlive/2019/texmf-dist/tex/latex/amsmath/amsmath.sty" 1544567569 85093 77cfa18ddbae4d9b74ade33d843686d3 ""
  "/usr/local/texlive/2019/texmf-dist/tex/latex/amsmath/amsopn.sty" 1523134290 4116 32e6abd27229755a83a8b7f18e583890 ""
  "/usr/local/texlive/2019/texmf-dist/tex/latex/amsmath/amstext.sty" 1523134290 2432 8ff93b1137020e8f21930562a874ae66 ""
  "/usr/local/texlive/2019/texmf-dist/tex/latex/appendix/appendix.sty" 1252539595 8526 d0d9b5e2dd0c996c69c3bd05eb25b943 ""
  "/usr/local/texlive/2019/texmf-dist/tex/latex/base/article.cls" 1544567569 19933 3097d1b31d3c45dc957096f554529032 ""
  "/usr/local/texlive/2019/texmf-dist/tex/latex/base/size12.clo" 1544567569 8305 6a682ae291edd56e2d7accbf95eca451 ""
  "/usr/local/texlive/2019/texmf-dist/tex/latex/bbold/bbold.sty" 1137109921 1827 b8dfd92843f5ac03d85dbd86854854d5 ""
  "/usr/local/texlive/2019/texmf-dist/tex/latex/enumitem/enumitem.sty" 1549316214 51603 ccc7546d1e15809a779ade2c44d54044 ""
  "/usr/local/texlive/2019/texmf-dist/tex/latex/etoolbox/etoolbox.sty" 1534713891 43865 f83cc2fa3767abdb988c7d2cd17c02bf ""
  "/usr/local/texlive/2019/texmf-dist/tex/latex/graphics-cfg/color.cfg" 1459978653 1213 620bba36b25224fa9b7e1ccb4ecb76fd ""
  "/usr/local/texlive/2019/texmf-dist/tex/latex/graphics-cfg/graphics.cfg" 1465944070 1224 978390e9c2234eab29404bc21b268d1e ""
  "/usr/local/texlive/2019/texmf-dist/tex/latex/graphics-def/pdftex.def" 1515537368 17334 520b9b85ad8a2a48eda3f643e27a5179 ""
  "/usr/local/texlive/2019/texmf-dist/tex/latex/graphics/color.sty" 1523134385 7028 112f909feb676788e7ea1c5b0b76320f ""
  "/usr/local/texlive/2019/texmf-dist/tex/latex/graphics/graphics.sty" 1523134385 15272 5a97061616e0c8b2aa79c6615ff769f4 ""
  "/usr/local/texlive/2019/texmf-dist/tex/latex/graphics/graphicx.sty" 1523134385 9063 d0a305975932762117cd1f06a582f896 ""
  "/usr/local/texlive/2019/texmf-dist/tex/latex/graphics/keyval.sty" 1523134385 2591 6404d0c7d28505fb38ce0d86c2e28ae7 ""
  "/usr/local/texlive/2019/texmf-dist/tex/latex/graphics/trig.sty" 1523134385 3977 cb9221976ed8a183afad65b59aa8629a ""
  "/usr/local/texlive/2019/texmf-dist/tex/latex/hyperref/hpdftex.def" 1543704539 51744 477aad43ad6a7ba8c462d20c3e0808e0 ""
  "/usr/local/texlive/2019/texmf-dist/tex/latex/hyperref/hyperref.sty" 1543704539 236074 d994150943d35d6af0d586a60cc78dd1 ""
  "/usr/local/texlive/2019/texmf-dist/tex/latex/hyperref/nameref.sty" 1465687530 12949 81e4e808884a8f0e276b69410e234656 ""
  "/usr/local/texlive/2019/texmf-dist/tex/latex/hyperref/pd1enc.def" 1543704539 14098 b4e1ecab4699a0341b8e1349e4c53fb1 ""
  "/usr/local/texlive/2019/texmf-dist/tex/latex/jknapltx/mathrsfs.sty" 1137110241 300 12fa6f636b617656f2810ee82cb05015 ""
  "/usr/local/texlive/2019/texmf-dist/tex/latex/jknapltx/ursfs.fd" 1137110241 548 cc4e3557704bfed27c7002773fad6c90 ""
  "/usr/local/texlive/2019/texmf-dist/tex/latex/l3kernel/expl3-code.tex" 1557258869 991574 8b7565870250a7658dcde6c4ff0ce02b ""
  "/usr/local/texlive/2019/texmf-dist/tex/latex/l3kernel/expl3.sty" 1557258869 9894 5fcfbd505b33f7ebb4d0c166a863a8b6 ""
  "/usr/local/texlive/2019/texmf-dist/tex/latex/l3kernel/l3pdfmode.def" 1557258869 21257 26dd8561ccc206a222835055475c0b12 ""
  "/usr/local/texlive/2019/texmf-dist/tex/latex/l3packages/xparse/xparse.sty" 1556922606 81617 00424b5835d3059b1495f2efccecaf6c ""
  "/usr/local/texlive/2019/texmf-dist/tex/latex/latexconfig/epstopdf-sys.cfg" 1279039959 678 4792914a8f45be57bb98413425e4c7af ""
  "/usr/local/texlive/2019/texmf-dist/tex/latex/latexconfig/hyperref.cfg" 1254097189 235 6031e5765137be07eed51a510b2b8fb7 ""
  "/usr/local/texlive/2019/texmf-dist/tex/latex/lipsum/lipsum.ltd.tex" 1546728170 98047 c6fa29828cc60471827afe275c8bd77f ""
  "/usr/local/texlive/2019/texmf-dist/tex/latex/lipsum/lipsum.sty" 1546638616 18060 8cf65af2c4529eed91b5d364b50d3ada ""
  "/usr/local/texlive/2019/texmf-dist/tex/latex/lm/lmodern.sty" 1257296302 1606 c17281c7cff2bbd7ff0173e1433487ec ""
  "/usr/local/texlive/2019/texmf-dist/tex/latex/mathtools/mathtools.sty" 1515449928 53430 0411f0481da6078e76fd7de46531d2e0 ""
  "/usr/local/texlive/2019/texmf-dist/tex/latex/mathtools/mhsetup.sty" 1496786006 5317 cf75154a8a7e6436f05a5be497f0b05e ""
  "/usr/local/texlive/2019/texmf-dist/tex/latex/ms/everyshi.sty" 1177890616 3878 6aa7c08ff2621006e0603349e40a30a8 ""
  "/usr/local/texlive/2019/texmf-dist/tex/latex/oberdiek/auxhook.sty" 1463608860 3834 4363110eb0ef1eb2b71c8fcbcdb6c357 ""
  "/usr/local/texlive/2019/texmf-dist/tex/latex/oberdiek/epstopdf-base.sty" 1463608860 12095 5337833c991d80788a43d3ce26bd1c46 ""
  "/usr/local/texlive/2019/texmf-dist/tex/latex/oberdiek/grfext.sty" 1463608860 7075 2fe3d848bba95f139de11ded085e74aa ""
  "/usr/local/texlive/2019/texmf-dist/tex/latex/oberdiek/kvoptions.sty" 1463608860 22417 1d9df1eb66848aa31b18a593099cf45c ""
  "/usr/local/texlive/2019/texmf-dist/tex/latex/oberdiek/rerunfilecheck.sty" 1463608860 9581 023642318cef9f4677efe364de1e2a27 ""
  "/usr/local/texlive/2019/texmf-dist/tex/latex/pgf/basiclayer/pgf.sty" 1546728038 1090 d20f587ea9464d1841bd0d13d3ff9856 ""
  "/usr/local/texlive/2019/texmf-dist/tex/latex/pgf/basiclayer/pgfcore.sty" 1288312291 410 5bf12ea7330e5f12c445332a4fe9a263 ""
  "/usr/local/texlive/2019/texmf-dist/tex/latex/pgf/compatibility/pgfcomp-version-0-65.sty" 1546728038 21013 e98e1aaaf40d31632787c2bd25d24b57 ""
  "/usr/local/texlive/2019/texmf-dist/tex/latex/pgf/compatibility/pgfcomp-version-1-18.sty" 1546728038 989 2cf3da8e8ec55131c49389428d565e37 ""
  "/usr/local/texlive/2019/texmf-dist/tex/latex/pgf/frontendlayer/tikz.sty" 1203877327 339 592cf35cba3d400082b8a9a5d0199d70 ""
  "/usr/local/texlive/2019/texmf-dist/tex/latex/pgf/math/pgfmath.sty" 1393459310 306 0796eafca5e159e6ec2167a6d22d81b1 ""
  "/usr/local/texlive/2019/texmf-dist/tex/latex/pgf/systemlayer/pgfsys.sty" 1393459310 443 0b2e781830192df35c0fd357cf13e26e ""
  "/usr/local/texlive/2019/texmf-dist/tex/latex/pgf/utilities/pgffor.sty" 1393459310 348 8927fde343487e003b01a4c2ca34073b ""
  "/usr/local/texlive/2019/texmf-dist/tex/latex/pgf/utilities/pgfkeys.sty" 1203727794 274 4cad6e665cc93ac2ac979039a94fa1e1 ""
  "/usr/local/texlive/2019/texmf-dist/tex/latex/pgf/utilities/pgfrcs.sty" 1203877327 325 2bcd023400636339210573e2b3ee298b ""
  "/usr/local/texlive/2019/texmf-dist/tex/latex/physics/physics.sty" 1356048875 29610 a9597219b282d9c78b02393dcd7d4322 ""
  "/usr/local/texlive/2019/texmf-dist/tex/latex/setspace/setspace.sty" 1324344192 22913 a27d7908fc6f0385466454a966a316eb ""
  "/usr/local/texlive/2019/texmf-dist/tex/latex/tools/calc.sty" 1523050425 10212 357072c1d20578a30d6387d8a22e72ab ""
  "/usr/local/texlive/2019/texmf-dist/tex/latex/txfonts/omltxmi.fd" 1137111002 492 e7f8afe4428797548d4301de03a1b15f ""
  "/usr/local/texlive/2019/texmf-dist/tex/latex/txfonts/omstxsy.fd" 1137111002 329 6ac7e19535b9f1d64e4d8e3f77dc30a3 ""
  "/usr/local/texlive/2019/texmf-dist/tex/latex/txfonts/omxtxex.fd" 1137111002 312 11fe1916b0a13a81a05234a6fc7f8738 ""
  "/usr/local/texlive/2019/texmf-dist/tex/latex/txfonts/ot1txr.fd" 1137111002 1271 4e3afbd8e832f2f9c7f064894e6e68e4 ""
  "/usr/local/texlive/2019/texmf-dist/tex/latex/txfonts/txfonts.sty" 1206746551 50381 d367461010070c7a491b1f6979ab2062 ""
  "/usr/local/texlive/2019/texmf-dist/tex/latex/txfonts/utxexa.fd" 1137111002 310 1b00b0b05685b816e4c6caccce437e0d ""
  "/usr/local/texlive/2019/texmf-dist/tex/latex/txfonts/utxmia.fd" 1137111002 334 87436a82076ca2e35cd305f852507afc ""
  "/usr/local/texlive/2019/texmf-dist/tex/latex/txfonts/utxsya.fd" 1137111002 310 cee07e4964749ccbc77d84fc49726a79 ""
  "/usr/local/texlive/2019/texmf-dist/tex/latex/txfonts/utxsyb.fd" 1137111002 310 8c5467c8932c259af51b0f116c9734bd ""
  "/usr/local/texlive/2019/texmf-dist/tex/latex/txfonts/utxsyc.fd" 1137111002 310 4b5d6fe830337242ef847b3bff48ba21 ""
  "/usr/local/texlive/2019/texmf-dist/tex/latex/url/url.sty" 1388531844 12796 8edb7d69a20b857904dd0ea757c14ec9 ""
  "/usr/local/texlive/2019/texmf-dist/tex/latex/wasysym/uwasy.fd" 1137111081 2127 de456b4fb7b20e6651c727c9fdc94803 ""
  "/usr/local/texlive/2019/texmf-dist/tex/latex/wasysym/wasysym.sty" 1137111081 10611 eca9e56dd071530be0c56f0b968bbdb6 ""
  "/usr/local/texlive/2019/texmf-dist/tex/latex/xcolor/xcolor.sty" 1463002160 55589 34128738f682d033422ca125f82e5d62 ""
  "/usr/local/texlive/2019/texmf-dist/web2c/texmf.cnf" 1557092114 35484 cb1661360667bf4db662a8895053b554 ""
  "/usr/local/texlive/2019/texmf-var/fonts/map/pdftex/updmap/pdftex.map" 1557342064 3277517 23507ed665b4dd9046f0f2a94bbef2be ""
  "/usr/local/texlive/2019/texmf-var/web2c/pdftex/pdflatex.fmt" 1585212207 4259636 2e85a424c5b1b5d6187aea6c6c177037 ""
  "/usr/local/texlive/2019/texmf.cnf" 1557341546 577 d150fef99ac436ad1156e86b0892f6ef ""
  "QM_notes.aux" 1588794469 1178 aca78daaa5abe1015a78b1a0e6ab2ae8 "pdflatex"
  "QM_notes.bbl" 0 -1 0 "bibtex QM_notes"
  "QM_notes.out" 1588794469 243 c899c4728c47bedea588937cd9de893e "pdflatex"
  "QM_notes.tex" 1588794467 4802 d25723983f1b3617dbac90d05a142b56 ""
  (generated)
  "QM_notes.pdf"
  "QM_notes.aux"
  "QM_notes.out"
  "QM_notes.log"
