mktextfm 
mktextfm at10
mktextfm at10
mktextfm at10
mktextfm at10
mktextfm at10
mktextfm at10
mktextfm at10
mktextfm at10
mktextfm at10
mktextfm at10
mktextfm at10
mktextfm at10
mktextfm at10
mktextfm at10
mktextfm at10
mktextfm at10
mktextfm 
mktextfm at10
mktextfm at10
mktextfm at10
mktextfm at10
mktextfm at10
mktextfm at10
mktextfm at10
mktextfm at10
mktextfm at10
mktextfm at10
mktextfm at10
mktextfm at10
mktextfm at10
mktextfm at10
mktextfm at10
mktextfm at10
mktextfm 
mktextfm at10
mktextfm at10
mktextfm at10
mktextfm at10
mktextfm at10
mktextfm at10
mktextfm at10
mktextfm at10
mktextfm at10
mktextfm at10
mktextfm at10
mktextfm at10
mktextfm at10
mktextfm at10
mktextfm at10
mktextfm at10
mktextfm 
mktextfm at10
mktextfm at10
mktextfm at10
mktextfm at10
mktextfm at10
mktextfm at10
mktextfm at10
mktextfm at10
mktextfm at10
mktextfm at10
mktextfm at10
mktextfm at10
mktextfm at10
mktextfm at10
mktextfm at10
mktextfm at10
mktextfm 
mktextfm at10
mktextfm at10
mktextfm at10
mktextfm at10
mktextfm at10
mktextfm at10
mktextfm at10
mktextfm at10
mktextfm at10
mktextfm at10
mktextfm at10
mktextfm at10
mktextfm at10
mktextfm at10
mktextfm at10
mktextfm at10
mktextfm 
mktextfm at10
mktextfm at10
mktextfm at10
mktextfm at10
mktextfm at10
mktextfm at10
mktextfm at10
mktextfm at10
mktextfm at10
mktextfm at10
mktextfm at10
mktextfm at10
mktextfm at10
mktextfm at10
mktextfm at10
mktextfm at10
mktextfm 
mktextfm at10
mktextfm at10
mktextfm at10
mktextfm at10
mktextfm at10
mktextfm at10
mktextfm at10
mktextfm at10
mktextfm at10
mktextfm at10
mktextfm at10
mktextfm at10
mktextfm at10
mktextfm at10
mktextfm at10
mktextfm at10
mktextfm 
mktextfm at10
mktextfm at10
mktextfm at10
mktextfm at10
mktextfm at10
mktextfm at10
mktextfm at10
mktextfm at10
mktextfm at10
mktextfm at10
mktextfm at10
mktextfm at10
mktextfm at10
mktextfm at10
mktextfm at10
mktextfm at10
mktextfm 
mktextfm at10
mktextfm at10
mktextfm at10
mktextfm at10
mktextfm at10
mktextfm at10
mktextfm at10
mktextfm at10
mktextfm at10
mktextfm at10
mktextfm at10
mktextfm at10
mktextfm at10
mktextfm at10
mktextfm at10
mktextfm at10
mktextfm at7
